[
null,
{"id":1,"animation1Hue":0,"animation1Name":"Light1","animation2Hue":0,"animation2Name":"","frames":[[[0,0,-132,195,0,0,255,1]],[[1,0,-132,195,0,0,255,1]],[[2,0,-132,195,0,0,255,1]],[[3,0,-132,195,0,0,255,1],[24,0,-132,195,0,0,50,1]],[[4,0,-132,195,0,0,255,1],[25,0,-132,195,0,0,100,1]],[[5,0,-132,195,0,0,255,1],[26,0,-132,195,0,0,200,1]],[[6,0,-132,195,0,0,255,1],[27,0,-132,195,0,0,255,1]],[[7,0,-132,195,0,0,255,1],[28,0,-132,195,0,0,255,1]],[[5,0,-132,195,0,0,255,1],[29,0,-132,195,0,0,255,1]],[[6,0,-132,195,0,0,255,1],[24,0,-132,195,0,0,255,1]],[[7,0,-132,195,0,0,255,1],[25,0,-132,195,0,0,255,1]],[[8,0,-132,195,0,0,255,1],[26,0,-132,195,0,0,255,1]],[[9,0,-132,195,0,0,255,1],[27,0,-132,195,0,0,255,1]],[[10,0,-132,195,0,0,255,1],[28,0,-132,195,0,0,255,1]],[[11,0,-132,195,0,0,255,1],[29,0,-132,195,0,0,255,1]],[[12,0,-132,195,0,0,255,1],[24,0,-132,195,0,0,255,1]],[[13,0,-132,195,0,0,255,1],[25,0,-132,195,0,0,255,1]],[[14,0,-132,195,0,0,255,1],[26,0,-132,195,0,0,255,1]],[[15,0,-132,195,0,0,255,1],[27,0,-132,195,0,0,255,1]],[[16,0,-132,195,0,0,255,1],[28,0,-132,195,0,0,255,1]],[[17,0,-132,195,0,0,255,1],[29,0,-132,195,0,0,255,1]],[[18,0,-132,195,0,0,255,1],[24,0,-132,195,0,0,255,1]],[[19,0,-132,195,0,0,255,1],[25,0,-132,195,0,0,255,1]],[[20,0,-132,195,0,0,255,1],[26,0,-132,195,0,0,255,1]],[[21,0,-132,195,0,0,255,1],[27,0,-132,195,0,0,255,1]],[[22,0,-132,195,0,0,255,1],[28,0,-132,195,0,0,255,1]],[[23,0,-132,195,0,0,255,1],[29,0,-132,195,0,0,255,1]],[[18,0,-132,195,0,0,255,1],[24,0,-132,195,0,0,255,1]],[[19,0,-132,195,0,0,255,1],[25,0,-132,195,0,0,255,1]],[[20,0,-132,195,0,0,255,1],[26,0,-132,195,0,0,255,1]],[[21,0,-132,195,0,0,255,1],[27,0,-132,195,0,0,255,1]],[[22,0,-132,195,0,0,255,1],[28,0,-132,195,0,0,255,1]],[[23,0,-132,195,0,0,255,1],[29,0,-132,195,0,0,255,1]],[[18,0,-132,195,0,0,200,1],[24,0,-132,195,0,0,200,1]],[[19,0,-132,195,0,0,150,1],[25,0,-132,195,0,0,150,1]],[[20,0,-132,195,0,0,100,1],[26,0,-132,195,0,0,100,1]],[[21,0,-132,195,0,0,50,1],[27,0,-132,195,0,0,50,1]]],"name":"빛 기둥 1","position":2,"timings":[{"flashColor":[255,255,255,255],"flashDuration":5,"flashScope":0,"frame":0,"se":{"name":"Magic2","pan":0,"pitch":150,"volume":70}},{"flashColor":[255,255,255,255],"flashDuration":5,"flashScope":0,"frame":7,"se":{"name":"Up3","pan":0,"pitch":150,"volume":90}}]}
]